<svg xmlns="http://www.w3.org/2000/svg" width="15" height="14" viewBox="0 0 15 14">
    <path fill="none" fill-rule="evenodd" stroke="#FFF" stroke-opacity=".6" d="M11.47 13.094l-.758-4.336 3.199-3.06-4.423-.631L7.5 1.113 5.512 5.067l-4.423.63 3.2 3.06-.758 4.337L7.5 11.046l3.97 2.048z"/>
</svg>
